{"failedCount":0,"prefixedPath":"classpath:Test\/Assertion.feature","packageQualifiedName":"Test.Assertion","loopIndex":-1,"relativePath":"Test\/Assertion.feature","scenarioResults":[{"sectionIndex":0,"stepResults":[{"result":{"nanos":1190000,"millis":1.19,"status":"passed"},"step":{"background":true,"line":4,"prefix":"*","index":0,"text":"url baseURL"},"stepLog":"13:59:06.383 env: default \n13:59:06.385 baseURL: https:\/\/reqres.in\/api \n"},{"result":{"nanos":803700,"millis":0.8037,"status":"passed"},"step":{"line":8,"prefix":"Given","index":0,"text":"path '\/users?page=2'"}},{"result":{"nanos":1200086900,"millis":1200.0869,"status":"passed"},"step":{"line":9,"prefix":"When","index":1,"text":"method GET"},"stepLog":"13:59:07.004 request:\n1 > GET https:\/\/reqres.in\/api\/users%3Fpage=2\n1 > Host: reqres.in\n1 > Connection: Keep-Alive\n1 > User-Agent: Apache-HttpClient\/4.5.14 (Java\/17.0.6)\n1 > Accept-Encoding: gzip,deflate\n\n\n13:59:07.627 response time in milliseconds: 613\n1 < 200\n1 < Date: Tue, 18 Apr 2023 08:29:06 GMT\n1 < Content-Type: application\/json; charset=utf-8\n1 < Transfer-Encoding: chunked\n1 < Connection: keep-alive\n1 < X-Powered-By: Express\n1 < Access-Control-Allow-Origin: *\n1 < Etag: W\/\"2c1-N6Rqerxquq2kgQhL51EiSg4x0R8\"\n1 < Via: 1.1 vegur\n1 < Cache-Control: max-age=14400\n1 < CF-Cache-Status: HIT\n1 < Age: 4087\n1 < Report-To: {\"endpoints\":[{\"url\":\"https:\\\/\\\/a.nel.cloudflare.com\\\/report\\\/v3?s=wSv9fOAsPEFLTIpT0D%2F7RPpnkszWkib2T86gUnWe0ukOr%2BIepDNvY0BgZ79qnXtmvSWHI%2Fw%2FIfCIROtQl6ofqw5my5bXethJsDMtBjCh%2Bs0Okc0ZcYNAtDOI%2BA%3D%3D\"}],\"group\":\"cf-nel\",\"max_age\":604800}\n1 < NEL: {\"success_fraction\":0,\"report_to\":\"cf-nel\",\"max_age\":604800}\n1 < Vary: Accept-Encoding\n1 < Server: cloudflare\n1 < CF-RAY: 7b9b89c2cef252c8-CCU\n{\"page\":1,\"per_page\":6,\"total\":12,\"total_pages\":2,\"data\":[{\"id\":1,\"name\":\"cerulean\",\"year\":2000,\"color\":\"#98B2D1\",\"pantone_value\":\"15-4020\"},{\"id\":2,\"name\":\"fuchsia rose\",\"year\":2001,\"color\":\"#C74375\",\"pantone_value\":\"17-2031\"},{\"id\":3,\"name\":\"true red\",\"year\":2002,\"color\":\"#BF1932\",\"pantone_value\":\"19-1664\"},{\"id\":4,\"name\":\"aqua sky\",\"year\":2003,\"color\":\"#7BC4C4\",\"pantone_value\":\"14-4811\"},{\"id\":5,\"name\":\"tigerlily\",\"year\":2004,\"color\":\"#E2583E\",\"pantone_value\":\"17-1456\"},{\"id\":6,\"name\":\"blue turquoise\",\"year\":2005,\"color\":\"#53B0AE\",\"pantone_value\":\"15-5217\"}],\"support\":{\"url\":\"https:\/\/reqres.in\/#support-heading\",\"text\":\"To keep ReqRes free, contributions towards server costs are appreciated!\"}}\n\n"},{"result":{"nanos":27400,"millis":0.0274,"status":"passed"},"step":{"line":10,"prefix":"Then","index":2,"text":"status 200"}},{"result":{"nanos":11106300,"millis":11.1063,"status":"passed"},"step":{"line":11,"prefix":"And","index":3,"text":"print response"},"stepLog":"13:59:07.686 [print] {\n  \"page\": 1,\n  \"per_page\": 6,\n  \"total\": 12,\n  \"total_pages\": 2,\n  \"data\": [\n    {\n      \"id\": 1,\n      \"name\": \"cerulean\",\n      \"year\": 2000,\n      \"color\": \"#98B2D1\",\n      \"pantone_value\": \"15-4020\"\n    },\n    {\n      \"id\": 2,\n      \"name\": \"fuchsia rose\",\n      \"year\": 2001,\n      \"color\": \"#C74375\",\n      \"pantone_value\": \"17-2031\"\n    },\n    {\n      \"id\": 3,\n      \"name\": \"true red\",\n      \"year\": 2002,\n      \"color\": \"#BF1932\",\n      \"pantone_value\": \"19-1664\"\n    },\n    {\n      \"id\": 4,\n      \"name\": \"aqua sky\",\n      \"year\": 2003,\n      \"color\": \"#7BC4C4\",\n      \"pantone_value\": \"14-4811\"\n    },\n    {\n      \"id\": 5,\n      \"name\": \"tigerlily\",\n      \"year\": 2004,\n      \"color\": \"#E2583E\",\n      \"pantone_value\": \"17-1456\"\n    },\n    {\n      \"id\": 6,\n      \"name\": \"blue turquoise\",\n      \"year\": 2005,\n      \"color\": \"#53B0AE\",\n      \"pantone_value\": \"15-5217\"\n    }\n  ],\n  \"support\": {\n    \"url\": \"https:\/\/reqres.in\/#support-heading\",\n    \"text\": \"To keep ReqRes free, contributions towards server costs are appreciated!\"\n  }\n}\n \n"},{"result":{"nanos":50541600,"millis":50.5416,"status":"passed"},"step":{"line":12,"prefix":"And","index":4,"text":"match response.total == 12"}},{"result":{"nanos":8968400,"millis":8.9684,"status":"passed"},"step":{"line":13,"prefix":"And","index":5,"text":"match response.data == '#[6]'"}},{"result":{"nanos":4635600,"millis":4.6356,"status":"passed"},"step":{"line":14,"prefix":"And","index":6,"text":"match response.data[*].name contains 'tigerlily'"}},{"result":{"nanos":7890000,"millis":7.89,"status":"passed"},"step":{"line":15,"prefix":"And","index":7,"text":"match response..name contains 'tigerlily'"}},{"result":{"nanos":1982900,"millis":1.9829,"status":"passed"},"step":{"line":16,"prefix":"And","index":8,"text":"match response.data[*].name contains any ['tigerlily','Rk']      #we don't have Rk in the response"}},{"result":{"nanos":6685500,"millis":6.6855,"status":"passed"},"step":{"line":17,"prefix":"And","index":9,"text":"match response.data[*].name !contains 'Rk'"}}],"executorName":"main","line":7,"name":"Simple Assertions","description":"","durationMillis":1293.9183,"startTime":1681806545998,"failed":false,"refId":"[1:7]","endTime":1681806547774,"exampleIndex":-1},{"sectionIndex":1,"stepResults":[{"result":{"nanos":522000,"millis":0.522,"status":"passed"},"step":{"background":true,"line":4,"prefix":"*","index":0,"text":"url baseURL"},"stepLog":"13:59:07.811 env: default \n13:59:07.812 baseURL: https:\/\/reqres.in\/api \n"},{"result":{"nanos":356800,"millis":0.3568,"status":"passed"},"step":{"line":21,"prefix":"Given","index":0,"text":"path '\/users?page=2'"}},{"result":{"nanos":209234300,"millis":209.2343,"status":"passed"},"step":{"line":22,"prefix":"When","index":1,"text":"method GET"},"stepLog":"13:59:07.824 request:\n1 > GET https:\/\/reqres.in\/api\/users%3Fpage=2\n1 > Host: reqres.in\n1 > Connection: Keep-Alive\n1 > User-Agent: Apache-HttpClient\/4.5.14 (Java\/17.0.6)\n1 > Accept-Encoding: gzip,deflate\n\n\n13:59:08.014 response time in milliseconds: 186\n1 < 200\n1 < Date: Tue, 18 Apr 2023 08:29:06 GMT\n1 < Content-Type: application\/json; charset=utf-8\n1 < Transfer-Encoding: chunked\n1 < Connection: keep-alive\n1 < X-Powered-By: Express\n1 < Access-Control-Allow-Origin: *\n1 < Etag: W\/\"2c1-N6Rqerxquq2kgQhL51EiSg4x0R8\"\n1 < Via: 1.1 vegur\n1 < Cache-Control: max-age=14400\n1 < CF-Cache-Status: HIT\n1 < Age: 4087\n1 < Report-To: {\"endpoints\":[{\"url\":\"https:\\\/\\\/a.nel.cloudflare.com\\\/report\\\/v3?s=0ZJ1bkdLy4brhUto8yFIuB0%2BIPR9KlUufDVWau5wWOF%2Fz8BKmpzz%2FggK7QMW6cIiSkgOQVAtnztLTS9%2FfIyjw%2FCnX6Gb%2FZvfVDyM5YscS8TiaMxhgqf98amR7A%3D%3D\"}],\"group\":\"cf-nel\",\"max_age\":604800}\n1 < NEL: {\"success_fraction\":0,\"report_to\":\"cf-nel\",\"max_age\":604800}\n1 < Vary: Accept-Encoding\n1 < Server: cloudflare\n1 < CF-RAY: 7b9b89c579e252af-CCU\n{\"page\":1,\"per_page\":6,\"total\":12,\"total_pages\":2,\"data\":[{\"id\":1,\"name\":\"cerulean\",\"year\":2000,\"color\":\"#98B2D1\",\"pantone_value\":\"15-4020\"},{\"id\":2,\"name\":\"fuchsia rose\",\"year\":2001,\"color\":\"#C74375\",\"pantone_value\":\"17-2031\"},{\"id\":3,\"name\":\"true red\",\"year\":2002,\"color\":\"#BF1932\",\"pantone_value\":\"19-1664\"},{\"id\":4,\"name\":\"aqua sky\",\"year\":2003,\"color\":\"#7BC4C4\",\"pantone_value\":\"14-4811\"},{\"id\":5,\"name\":\"tigerlily\",\"year\":2004,\"color\":\"#E2583E\",\"pantone_value\":\"17-1456\"},{\"id\":6,\"name\":\"blue turquoise\",\"year\":2005,\"color\":\"#53B0AE\",\"pantone_value\":\"15-5217\"}],\"support\":{\"url\":\"https:\/\/reqres.in\/#support-heading\",\"text\":\"To keep ReqRes free, contributions towards server costs are appreciated!\"}}\n\n"},{"result":{"nanos":60300,"millis":0.0603,"status":"passed"},"step":{"line":23,"prefix":"Then","index":2,"text":"status 200"}},{"result":{"nanos":4372800,"millis":4.3728,"status":"passed"},"step":{"line":24,"prefix":"And","index":3,"text":"match response.data ==\"#array\""}},{"result":{"nanos":20246200,"millis":20.2462,"status":"passed"},"step":{"line":25,"prefix":"And","index":4,"text":"match each response.data[*].name ==\"#string\""}},{"result":{"nanos":5542400,"millis":5.5424,"status":"passed"},"step":{"comments":["#double hash means age key is optional"],"line":27,"prefix":"And","index":5,"text":"match each response.data[*].age ==\"##number\""}},{"result":{"nanos":17050800,"millis":17.0508,"status":"passed"},"step":{"line":28,"prefix":"And","index":6,"text":"match each response..name == \"#string\""}},{"result":{"nanos":16983100,"millis":16.9831,"status":"passed"},"step":{"line":29,"prefix":"And","index":7,"text":"match each response..id == '#number'"}},{"result":{"nanos":11915200,"millis":11.9152,"status":"passed"},"step":{"line":30,"prefix":"And","index":8,"text":"match each response..year == \"#number\""}},{"result":{"nanos":9609700,"millis":9.6097,"status":"passed"},"step":{"line":31,"prefix":"And","index":9,"text":"match each response..color == \"#string\""}}],"executorName":"main","line":20,"name":"Fuzzy matching","description":"","durationMillis":295.8936,"startTime":1681806547799,"failed":false,"refId":"[2:20]","endTime":1681806548117,"exampleIndex":-1},{"sectionIndex":2,"stepResults":[{"result":{"nanos":293400,"millis":0.2934,"status":"passed"},"step":{"background":true,"line":4,"prefix":"*","index":0,"text":"url baseURL"},"stepLog":"13:59:08.140 env: default \n13:59:08.141 baseURL: https:\/\/reqres.in\/api \n"},{"result":{"nanos":1239500,"millis":1.2395,"status":"passed"},"step":{"line":36,"prefix":"Given","index":0,"text":"path '\/users'"}},{"result":{"nanos":3568300,"millis":3.5683,"status":"passed"},"step":{"line":37,"prefix":"And","index":1,"text":"request {\"name\": \"Ranjith\",\"job\": \"QA\"}"}},{"result":{"nanos":672940900,"millis":672.9409,"status":"passed"},"step":{"line":38,"prefix":"When","index":2,"text":"method POST"},"stepLog":"13:59:08.271 request:\n1 > POST https:\/\/reqres.in\/api\/users\n1 > Content-Type: application\/json; charset=UTF-8\n1 > Content-Length: 29\n1 > Host: reqres.in\n1 > Connection: Keep-Alive\n1 > User-Agent: Apache-HttpClient\/4.5.14 (Java\/17.0.6)\n1 > Accept-Encoding: gzip,deflate\n{\"name\":\"Ranjith\",\"job\":\"QA\"}\n\n13:59:08.816 response time in milliseconds: 539\n1 < 201\n1 < Date: Tue, 18 Apr 2023 08:29:07 GMT\n1 < Content-Type: application\/json; charset=utf-8\n1 < Content-Length: 79\n1 < Connection: keep-alive\n1 < X-Powered-By: Express\n1 < Access-Control-Allow-Origin: *\n1 < Etag: W\/\"4f-k+P4nRbSxiGY898n6qJwot0XZJE\"\n1 < Via: 1.1 vegur\n1 < CF-Cache-Status: DYNAMIC\n1 < Report-To: {\"endpoints\":[{\"url\":\"https:\\\/\\\/a.nel.cloudflare.com\\\/report\\\/v3?s=ASCGsxt%2BxSrYA2XJbHiM63z1q%2FJF7wA4AunBQMK%2BmI%2BBLIUEM8cCPi%2BMlIgDDWtJvEVk2Yym1IBii%2Fi1t7QYUscDaaGTamd5q0EyMymT%2Fv4N%2B%2Bg5Y6jmqDs4cQ%3D%3D\"}],\"group\":\"cf-nel\",\"max_age\":604800}\n1 < NEL: {\"success_fraction\":0,\"report_to\":\"cf-nel\",\"max_age\":604800}\n1 < Server: cloudflare\n1 < CF-RAY: 7b9b89c82b5c52c1-CCU\n{\"name\":\"Ranjith\",\"job\":\"QA\",\"id\":\"851\",\"createdAt\":\"2023-04-18T08:29:07.513Z\"}\n\n"},{"result":{"nanos":38000,"millis":0.038,"status":"passed"},"step":{"line":39,"prefix":"Then","index":3,"text":"status 201"}},{"result":{"nanos":5669400,"millis":5.6694,"status":"passed"},"step":{"line":40,"prefix":"And","index":4,"text":"print response"},"stepLog":"13:59:08.828 [print] {\n  \"name\": \"Ranjith\",\n  \"job\": \"QA\",\n  \"id\": \"851\",\n  \"createdAt\": \"2023-04-18T08:29:07.513Z\"\n}\n \n"},{"result":{"nanos":2610100,"millis":2.6101,"status":"passed"},"step":{"endLine":49,"line":41,"prefix":"And","docString":"{\n\"name\": \"Ranjith\",\n\"job\": \"QA\",\n\"id\": \"#string\",\n\"createdAt\": \"#ignore\"\n}","index":5,"text":"match response =="}}],"executorName":"main","line":35,"name":"Assert response - multiline comments","description":"","durationMillis":686.3596,"startTime":1681806548132,"failed":false,"refId":"[3:35]","endTime":1681806548832,"exampleIndex":-1}],"callDepth":0,"name":"Assertions","description":"","resultDate":"2023-04-18 01:59:08 pm","durationMillis":2276.1715,"passedCount":3}